(module RISC-V_GD32VF103 (layer F.Cu) (tedit 62DC1A1E)
  (fp_text reference REF** (at 0 29.21) (layer F.SilkS)
    (effects (font (size 1 1) (thickness 0.15)))
  )
  (fp_text value RISC-V_GD32VF103 (at 0 26.67) (layer F.Fab)
    (effects (font (size 1 1) (thickness 0.15)))
  )
  (fp_line (start -3.35 -6.7) (end 3.35 -6.7) (layer F.SilkS) (width 0.12))
  (fp_line (start -3.35 0) (end -3.35 -6.7) (layer F.SilkS) (width 0.12))
  (fp_line (start 3.35 0) (end 3.35 -6.7) (layer F.SilkS) (width 0.12))
  (fp_line (start -3.35 0) (end 3.35 0) (layer F.SilkS) (width 0.12))
  (pad 36 smd rect (at -1.5 -7) (size 0.3 0.3) (layers F.Cu F.Paste F.Mask))
  (pad 35 smd rect (at -1 -7) (size 0.3 0.3) (layers F.Cu F.Paste F.Mask))
  (pad 34 smd rect (at -0.5 -7) (size 0.3 0.3) (layers F.Cu F.Paste F.Mask))
  (pad 33 smd rect (at 0 -7) (size 0.3 0.3) (layers F.Cu F.Paste F.Mask))
  (pad 32 smd rect (at 0.5 -7) (size 0.3 0.3) (layers F.Cu F.Paste F.Mask))
  (pad 31 smd rect (at 1 -7) (size 0.3 0.3) (layers F.Cu F.Paste F.Mask))
  (pad 30 smd rect (at 1.5 -7) (size 0.3 0.3) (layers F.Cu F.Paste F.Mask))
  (pad 29 smd rect (at 2 -7) (size 0.3 0.3) (layers F.Cu F.Paste F.Mask))
  (pad 28 smd rect (at 2.5 -7) (size 0.3 0.3) (layers F.Cu F.Paste F.Mask))
  (pad 27 smd rect (at 3.5 -5.5) (size 0.3 0.3) (layers F.Cu F.Paste F.Mask))
  (pad 26 smd rect (at 3.5 -5) (size 0.3 0.3) (layers F.Cu F.Paste F.Mask))
  (pad 25 smd rect (at 3.5 -4.5) (size 0.3 0.3) (layers F.Cu F.Paste F.Mask))
  (pad 24 smd rect (at 3.5 -4) (size 0.3 0.3) (layers F.Cu F.Paste F.Mask))
  (pad 23 smd rect (at 3.5 -3.5) (size 0.3 0.3) (layers F.Cu F.Paste F.Mask))
  (pad 22 smd rect (at 3.5 -3) (size 0.3 0.3) (layers F.Cu F.Paste F.Mask))
  (pad 21 smd rect (at 3.5 -2.5) (size 0.3 0.3) (layers F.Cu F.Paste F.Mask))
  (pad 20 smd rect (at 3.5 -2) (size 0.3 0.3) (layers F.Cu F.Paste F.Mask))
  (pad 19 smd rect (at 3.5 -1.45) (size 0.3 0.3) (layers F.Cu F.Paste F.Mask))
  (pad 18 smd rect (at 2 0.5) (size 0.3 0.3) (layers F.Cu F.Paste F.Mask))
  (pad 17 smd rect (at 1.5 0.5) (size 0.3 0.3) (layers F.Cu F.Paste F.Mask))
  (pad 16 smd rect (at 1 0.5) (size 0.3 0.3) (layers F.Cu F.Paste F.Mask))
  (pad 15 smd rect (at 0.5 0.5) (size 0.3 0.3) (layers F.Cu F.Paste F.Mask))
  (pad 14 smd rect (at 0 0.5) (size 0.3 0.3) (layers F.Cu F.Paste F.Mask))
  (pad 13 smd rect (at -0.5 0.5) (size 0.3 0.3) (layers F.Cu F.Paste F.Mask))
  (pad 12 smd rect (at -1 0.5) (size 0.3 0.3) (layers F.Cu F.Paste F.Mask))
  (pad 11 smd rect (at -1.5 0.5) (size 0.3 0.3) (layers F.Cu F.Paste F.Mask))
  (pad 10 smd rect (at -2 0.5) (size 0.3 0.3) (layers F.Cu F.Paste F.Mask))
  (pad 1 smd rect (at -3.5 -5.5) (size 0.3 0.3) (layers F.Cu F.Paste F.Mask))
  (pad 2 smd rect (at -3.5 -5) (size 0.3 0.3) (layers F.Cu F.Paste F.Mask))
  (pad 3 smd rect (at -3.5 -4.5) (size 0.3 0.3) (layers F.Cu F.Paste F.Mask))
  (pad 4 smd rect (at -3.5 -4) (size 0.3 0.3) (layers F.Cu F.Paste F.Mask))
  (pad 5 smd rect (at -3.5 -3.5) (size 0.3 0.3) (layers F.Cu F.Paste F.Mask))
  (pad 6 smd rect (at -3.5 -3) (size 0.3 0.3) (layers F.Cu F.Paste F.Mask))
  (pad 7 smd rect (at -3.5 -2.5) (size 0.3 0.3) (layers F.Cu F.Paste F.Mask))
  (pad 8 smd rect (at -3.5 -2) (size 0.3 0.3) (layers F.Cu F.Paste F.Mask))
  (pad 9 smd rect (at -3.5 -1.5) (size 0.3 0.3) (layers F.Cu F.Paste F.Mask))
)
